…
```r
# 2 Devise a strategy for filling in all of the missing values in the
# dataset.  The strategy does not need to be sophisticated.  For example,
# you could use the mean/median for that day, or the mean for that 5-minute
# interval, etc
impute_val <- summarise(Clean_df, Mean_Steps = mean(steps))
Imputed_df <- mutate(Raw_df, impute_steps = ifelse(is.na(steps), impute_val$Mean_Steps, 
    steps))
Imputed_df
```

```
## # A tibble: 17,568 x 4
##    steps       date interval impute_steps
##    <int>     <fctr>    <int>        <dbl>
##  1    NA 2012-10-01        0      37.3826
##  2    NA 2012-10-01        5      37.3826
##  3    NA 2012-10-01       10      37.3826
##  4    NA 2012-10-01       15      37.3826
##  5    NA 2012-10-01       20      37.3826
##  6    NA 2012-10-01       25      37.3826
##  7    NA 2012-10-01       30      37.3826
##  8    NA 2012-10-01       35      37.3826
##  9    NA 2012-10-01       40      37.3826
## 10    NA 2012-10-01       45      37.3826
## # ... with 17,558 more rows
```

```r
# 3 Create a new dataset that is equal to the original dataset but with the
# missing data filled in.
Imputed_df_orig <- mutate(Raw_df, steps = ifelse(is.na(steps), impute_val$Mean_Steps, 
    steps))
Imputed_df_orig
```

```
## # A tibble: 17,568 x 3
##      steps       date interval
##      <dbl>     <fctr>    <int>
##  1 37.3826 2012-10-01        0
##  2 37.3826 2012-10-01        5
##  3 37.3826 2012-10-01       10
##  4 37.3826 2012-10-01       15
##  5 37.3826 2012-10-01       20
##  6 37.3826 2012-10-01       25
##  7 37.3826 2012-10-01       30
##  8 37.3826 2012-10-01       35
##  9 37.3826 2012-10-01       40
## 10 37.3826 2012-10-01       45
## # ... with 17,558 more rows
```
…
